[
	{
		"model": "app_catalog.appcategory",
		"pk": 1,
		"fields": {
			"date_created": "2022-06-28T21:37:03.256Z",
			"date_modified": "2022-06-28T21:37:03.256Z",
			"deleted": false,
			"name": "security"
		}
	},
	{
		"model": "app_catalog.appcategory",
		"pk": 2,
		"fields": {
			"date_created": "2022-06-28T21:37:03.256Z",
			"date_modified": "2022-06-28T21:37:03.256Z",
			"deleted": false,
			"name": "media"
		}
	},
	{
		"model": "app_catalog.appcategory",
		"pk": 3,
		"fields": {
			"date_created": "2022-06-28T21:37:03.256Z",
			"date_modified": "2022-06-28T21:37:03.256Z",
			"deleted": false,
			"name": "collaboration"
		}
	}
]
