<?xml version="1.0" encoding="utf-8"?>
<!-- Generator: Adobe Illustrator 25.4.1, SVG Export Plug-In . SVG Version: 6.00 Build 0)  -->
<svg version="1.1" id="Layer_1" xmlns="http://www.w3.org/2000/svg" xmlns:xlink="http://www.w3.org/1999/xlink" x="0px" y="0px"
	 viewBox="0 0 88 88" style="enable-background:new 0 0 88 88;" xml:space="preserve">
<style type="text/css">
	.st0{fill-rule:evenodd;clip-rule:evenodd;fill:#606D6D;}
</style>
<path class="st0" d="M77.2,4c-0.7-0.7-1.5-1-2.4-1H13.2c-1,0-1.7,0.3-2.4,1c-0.7,0.7-1,1.6-1,2.4v41c0,3,0.6,6.1,1.8,9.1
	s2.6,5.7,4.4,8c1.7,2.3,3.9,4.7,6.3,6.8c2.4,2.2,4.7,4.1,6.8,5.5c2,1.4,4.3,2.8,6.5,4.1c2.2,1.3,3.8,2.2,4.7,2.6
	c0.9,0.5,1.7,0.8,2.2,1.1c0.4,0.2,0.9,0.3,1.4,0.3s1-0.1,1.4-0.3c0.6-0.2,1.3-0.6,2.3-1.1c0.9-0.5,2.5-1.3,4.7-2.6s4.4-2.7,6.5-4.1
	c2-1.4,4.4-3.3,6.8-5.5c2.4-2.2,4.5-4.4,6.3-6.8c1.7-2.3,3.2-5,4.4-8c1.2-3,1.8-6.1,1.8-9.1v-41C78.2,5.6,77.9,4.7,77.2,4z
	 M69.3,47.9C69.3,62.8,44,75.6,44,75.6V11.8h25.3C69.3,11.8,69.3,33,69.3,47.9z"/>
</svg>
